^C:\USERS\BBRAMSON\DOCUMENTS\VISUAL STUDIO 2010\PROJECTS\DASHBOARDAPPLICATION\DASHBOARDAPPLICATION\FORM1.RESX|C:\USERS\BBRAMSON\DOCUMENTS\VISUAL STUDIO 2010\PROJECTS\DASHBOARDAPPLICATION\DASHBOARDAPPLICATION\MY PROJECT\RESOURCES.RESX
C:\USERS\BBRAMSON\DOCUMENTS\VISUAL STUDIO 2010\PROJECTS\DASHBOARDAPPLICATION\DASHBOARDAPPLICATION\OBJ\X86\DEBUG\DASHBOARDAPPLICATION.FORM1.RESOURCES
C:\USERS\BBRAMSON\DOCUMENTS\VISUAL STUDIO 2010\PROJECTS\DASHBOARDAPPLICATION\DASHBOARDAPPLICATION\OBJ\X86\DEBUG\DASHBOARDAPPLICATION.RESOURCES.RESOURCES
